\babel@toc {english}{}
\contentsline {chapter}{\numberline {1}Deliverable 1}{2}{chapter.1}
\contentsline {section}{\numberline {1.1}Summary}{2}{section.1.1}
\contentsline {section}{\numberline {1.2}Conferences}{2}{section.1.2}
\contentsline {section}{\numberline {1.3}Workshops}{3}{section.1.3}
